{
  "changes": [
    {
      "description": "Add support to provide custom subscription with AZURE_SUBSCRIPTION variable.",
      "type": "minor"
    },
    {
      "description": "Internal maintenance: Update pipe's docker image to mcr.microsoft.com/azure-cli:2.54.0.",
      "type": "minor"
    },
    {
      "description": "Internal maintenance: Bump pipes and docker images versions in pipelines config file.",
      "type": "patch"
    }
  ],
  "created_at": "2023-12-07T07:36:04.249753+00:00",
  "version": "1.2.0"
}