{
  "changes": [
    {
      "description": "Bump azure-cli to version 2.63.0.",
      "type": "minor"
    },
    {
      "description": "Bump kubectl version to 1.31.0.",
      "type": "minor"
    },
    {
      "description": "Internal maintenance: Bump release pipe version. Add multi-platform build: linux/arm64 and linux/amd64.",
      "type": "patch"
    }
  ],
  "created_at": "2024-08-14T10:59:22+00:00",
  "version": "1.4.0"
}