{
  "changes": [
    {
      "description": "Internal maintenance: Bump pipes versions in pipelines configuration file.",
      "type": "patch"
    },
    {
      "description": "Internal maintenance: Update docker image to azure-cli:2.67.0",
      "type": "patch"
    }
  ],
  "created_at": "2024-12-30T13:19:15+00:00",
  "version": "1.4.1"
}