{
  "changes": [
    {
      "description": "Internal maintenance: Bump base docker image to 2.70.0.",
      "type": "patch"
    },
    {
      "description": "Internal maintenance: Update pipes versions in pipelines configuration file.",
      "type": "patch"
    }
  ],
  "created_at": "2025-03-06T08:33:04+00:00",
  "version": "1.4.2"
}